<?xml version="1.0" encoding="utf-8"?>
<!DOCTYPE svg PUBLIC "-//W3C//DTD SVG 1.1//EN" "http://www.w3.org/Graphics/SVG/1.1/DTD/svg11.dtd">
<svg version="1.1" xmlns="http://www.w3.org/2000/svg" xmlns:xlink="http://www.w3.org/1999/xlink" x="0px" y="0px"
	 viewBox="0 0 40 40" enable-background="new 0 0 40 40" xml:space="preserve">
<g id="Step_4">
	<g id="Step_4_Back">
		<path display="inline" fill="#999999" d="M39,28.1H23.5c0.4,0,0.7-0.3,0.7-0.7l-0.4-5.6c0-0.4-0.4-0.7-0.7-0.7h-6
			c-0.4,0-0.7,0.3-0.7,0.7l-0.4,5.6c0,0.4,0.3,0.7,0.7,0.7H1c-0.8,0-1-1-1-1.6c0-0.9,0.2-1.8,0.6-2.5L9.7,1c0.2-0.5,0.8-1,1.4-1h7.5
			c-0.4,0-0.7,0.3-0.7,0.7l-0.3,4.2c0,0.4,0.3,0.7,0.7,0.7h3.6c0.4,0,0.7-0.3,0.7-0.7l-0.3-4.2c0-0.4-0.4-0.7-0.7-0.7h7.5
			c0.6,0,1.2,0.5,1.4,1L39.4,24c0.3,0.8,0.6,1.7,0.6,2.5C40,27.2,39.8,28.1,39,28.1z M23.3,16.2l-0.5-7c0-0.4-0.4-0.7-0.7-0.7H18
			c-0.4,0-0.7,0.3-0.7,0.7l-0.5,7v0.1c0,0.4,0.3,0.6,0.6,0.6h5.4C23,16.9,23.3,16.6,23.3,16.2L23.3,16.2z"/>
	</g>
</g>
</svg>
